{
    "coverImageFilename": "cover.PNG",
    "icon": "cover.PNG",
    "id": "bruh-its-a-clock",
    "name": "Clock mod",
    "author": "Miniwa",
    "description": [
        
        "yeah its just",
        "a clock",
        "what you expect (ps there is a config file to play with)"
        
    ],
    "category": "Gameplay",
    "gameVersion": "1.8.0",
    "version": "1.2.0",
    "platform": "Quest",
    "components": [
        {
            "type": "HookMod",
            "installAction": {
                "installLibraryFile": "libbruh-its-a-clock.so"
            },
            "uninstallAction": {
                "removeLibraryFile": "libbruh-its-a-clock.so"
            }
        }
    ]
}
